Diet (dis)-similarity
…
trawl_data_cod

# A tibble: 468 × 3
# Groups:   haul_id [468]
   haul_id   mcod_kg_km2 scod_kg_km2
   <chr>           <dbl>       <dbl>
 1 2015_1_10   19145.         6892. 
 2 2015_1_12    7867.         2503. 
 3 2015_1_14   12351.         6444. 
 4 2015_1_15    3899.         2481. 
 5 2015_1_17    3583.         1792. 
 6 2015_1_2    38232.         8311. 
 7 2015_1_20      23.9           0  
 8 2015_1_21       0.401         0  
 9 2015_1_22     203.           18.4
10 2015_1_25      30.3          10.1
# ℹ 458 more rows
…
ovr <- diet_prop_wide |>
  pivot_longer(c(`Flounder\nSmall cod`, `Flounder\nLarge cod`, `Small cod\nLarge cod`),
               names_to = "overlap_group", values_to = "overlap") |> 
  drop_na(overlap)

pivot_longer: reorganized (Flounder
Small cod, Flounder
Large cod, Small cod
Large cod) into (overlap_group, overlap) [was 143x10, now 429x9]

drop_na (grouped): removed 170 rows (40%), 259 rows remaining

ovr

# A tibble: 259 × 9
# Groups:   year, quarter [13]
    year quarter ices_rect latitude longitude     X     Y overlap_group  overlap
   <dbl>   <dbl> <chr>        <dbl>     <dbl> <dbl> <dbl> <chr>            <dbl>
 1  2015       4 40G4          55.8      14.5  469. 6178. "Flounder\nSm… 0.0552 
 2  2015       4 40G4          55.8      14.5  469. 6178. "Flounder\nLa… 0.0222 
 3  2015       4 40G4          55.8      14.5  469. 6178. "Small cod\nL… 0.0351 
 4  2015       4 40G6          55.8      16.5  594. 6179. "Flounder\nSm… 0.00160
 5  2015       4 40G6          55.8      16.5  594. 6179. "Flounder\nLa… 0.00240
 6  2015       4 40G6          55.8      16.5  594. 6179. "Small cod\nL… 0.365  
 7  2015       4 41G7          56.2      17.5  655. 6237. "Flounder\nSm… 0.241  
 8  2015       4 41G7          56.2      17.5  655. 6237. "Flounder\nLa… 0.0936 
 9  2015       4 41G7          56.2      17.5  655. 6237. "Small cod\nL… 0.223  
10  2015       4 41G8          56.2      18.5  717. 6239. "Flounder\nSm… 0.107  
# ℹ 249 more rows
…
