Diet (dis)-similarity
…
d3

# A tibble: 510 × 5
   species pred_length_cm name            tot_prey_weight     n
   <chr>            <dbl> <chr>                     <dbl> <int>
 1 Cod                 39 Amphipoda            0.00000809   249
 2 Cod                 39 Bivalvia             0.00000379   249
 3 Cod                 39 Clupeidae            0.000384     249
 4 Cod                 39 Clupea Harengus      0.00800      249
 5 Cod                 39 Gadus Morhua         0.000187     249
 6 Cod                 39 Gobiidae             0.0000342    249
 7 Cod                 39 Mysidae              0.000117     249
 8 Cod                 39 Non Bio              0.00000243   249
 9 Cod                 39 Other Crustacea      0.0000525    249
10 Cod                 39 Other                0.0000190    249
# ℹ 500 more rows
…
tail(d3)

# A tibble: 6 × 5
  species  pred_length_cm name               tot_prey_weight     n
  <chr>             <dbl> <chr>                        <dbl> <int>
1 Flounder             11 Other                     0.00144     17
2 Flounder             11 Other Pisces              0           17
3 Flounder             11 Platichthys Flesus        0           17
4 Flounder             11 Polychaeta                0.000396    17
5 Flounder             11 Saduria Entomon           0.00272     17
6 Flounder             11 Sprattus Sprattus         0           17

d3 |> filter(tot_prey_weight > 0) |> arrange(tot_prey_weight)

# A tibble: 394 × 5
   species  pred_length_cm name            tot_prey_weight     n
   <chr>             <dbl> <chr>                     <dbl> <int>
 1 Cod                  45 Polychaeta         0.0000000173   105
 2 Cod                  35 Non Bio            0.000000117    337
 3 Cod                  45 Non Bio            0.000000153    105
 4 Flounder             25 Clupea Harengus    0.000000186    478
 5 Flounder             33 Mysidae            0.000000353    190
 6 Cod                  41 Bivalvia           0.000000395    203
 7 Cod                  35 Gadus Morhua       0.000000398    337
 8 Cod                  45 Bivalvia           0.000000429    105
 9 Cod                  47 Amphipoda          0.000000474     89
10 Cod                  47 Gobiidae           0.000000489     89
# ℹ 384 more rows
…
length(unique(for_overlap$id))

[1] 331

for_overlap

# A tibble: 9,255 × 29
   amphipoda_tot bivalvia_tot clupeidae_tot clupea_harengus_tot gadus_morhua_tot
           <dbl>        <dbl>         <dbl>               <dbl>            <dbl>
 1          0               0          0                      0                0
 2          0               0          0                      0                0
 3          0               0          0                      0                0
 4          0               0          0                      0                0
 5          0               0          0                      0                0
 6          0               0          0                      0                0
 7          0               0          1.74                   0                0
 8          0               0          0                      0                0
 9          0.04            0          0                      0                0
10          0               0          0                      0                0
# ℹ 9,245 more rows
# ℹ 24 more variables: gobiidae_tot <dbl>, mysidae_tot <dbl>,
#   non_bio_tot <dbl>, other_crustacea_tot <dbl>, other_tot <dbl>,
#   other_pisces_tot <dbl>, platichthys_flesus_tot <dbl>, polychaeta_tot <dbl>,
#   saduria_entomon_tot <dbl>, sprattus_sprattus_tot <dbl>, pred_id <chr>,
#   pred_length_cm <dbl>, pred_weight_g <dbl>, species <chr>, weight <dbl>,
#   year <dbl>, quarter <dbl>, subdiv <dbl>, ices_rect <chr>, X <dbl>, …
…
